1;Atlanta Hawks;Al Horford
2;Atlanta Hawks;DeMarre Carroll
3;Atlanta Hawks;Dennis Schroder
4;Atlanta Hawks;Elton Brand
5;Atlanta Hawks;Gustavo Ayon
6;Atlanta Hawks;Jared Cunningham
7;Atlanta Hawks;Jeff Teague
8;Atlanta Hawks;John Jenkins
9;Atlanta Hawks;Kyle Korver
10;Atlanta Hawks;Lou Williams
11;Atlanta Hawks;Mike Scott
12;Atlanta Hawks;Paul Millsap
13;Atlanta Hawks;Pero Antic
14;Atlanta Hawks;Shelvin Mack
15;Boston Celtics;Avery Bradley
16;Boston Celtics;Brandon Bass
17;Boston Celtics;Chris Johnson
18;Boston Celtics;Gerald Wallace
19;Boston Celtics;Jared Sullinger
20;Boston Celtics;Jeff Green
21;Boston Celtics;Jerryd Bayless
22;Boston Celtics;Joel Anthony
23;Boston Celtics;Keith Bogans
24;Boston Celtics;Kelly Olynyk
25;Boston Celtics;Kris Humphries
26;Boston Celtics;Phil Pressey
27;Boston Celtics;Rajon Rondo
28;Boston Celtics;Vander Blue
29;Boston Celtics;Vitor Faverani
30;Brooklyn Nets;Alan Anderson
31;Brooklyn Nets;Andray Blatche
32;Brooklyn Nets;Andrei Kirilenko
33;Brooklyn Nets;Brook Lopez
34;Brooklyn Nets;Deron Williams
35;Brooklyn Nets;Jason Terry
36;Brooklyn Nets;Joe Johnson
37;Brooklyn Nets;Kevin Garnett
38;Brooklyn Nets;Marquis Teague
39;Brooklyn Nets;Mason Plumlee
40;Brooklyn Nets;Mirza Teletovic
41;Brooklyn Nets;Paul Pierce
42;Brooklyn Nets;Reggie Evans
43;Brooklyn Nets;Shaun Livingston
44;Charlotte Bobcats;Al Jefferson
45;Charlotte Bobcats;Anthony Tolliver
46;Charlotte Bobcats;Ben Gordon
47;Charlotte Bobcats;Bismack Biyombo
48;Charlotte Bobcats;Brendan Haywood
49;Charlotte Bobcats;Chris Douglas-Roberts
50;Charlotte Bobcats;Cody Zeller
51;Charlotte Bobcats;Gerald Henderson
52;Charlotte Bobcats;Jannero Pargo
53;Charlotte Bobcats;Jeff Adrien
54;Charlotte Bobcats;Jeff Taylor
55;Charlotte Bobcats;Josh McRoberts
56;Charlotte Bobcats;Kemba Walker
57;Charlotte Bobcats;Michael Kidd-Gilchrist
58;Charlotte Bobcats;Ramon Sessions
59;Chicago Bulls;Andrew Bynum
60;Chicago Bulls;Carlos Boozer
61;Chicago Bulls;Cartier Martin
62;Chicago Bulls;D.J. Augustin
63;Chicago Bulls;Derrick Rose
64;Chicago Bulls;Dexter Pittman
65;Chicago Bulls;Erik Murphy
66;Chicago Bulls;Jimmy Butler
67;Chicago Bulls;Joakim Noah
68;Chicago Bulls;Kirk Hinrich
69;Chicago Bulls;Mike Dunleavy
70;Chicago Bulls;Mike James
71;Chicago Bulls;Nazr Mohammed
72;Chicago Bulls;Taj Gibson
73;Chicago Bulls;Tony Snell
74;Chicago Bulls;Tornike Shengelia
75;Cleveland Cavaliers;Alonzo Gee
76;Cleveland Cavaliers;Anderson Varejao
77;Cleveland Cavaliers;Anthony Bennett
78;Cleveland Cavaliers;C.J. Miles
79;Cleveland Cavaliers;Carrick Felix
80;Cleveland Cavaliers;Dion Waiters
81;Cleveland Cavaliers;Earl Clark
82;Cleveland Cavaliers;Henry Sims
83;Cleveland Cavaliers;Jarrett Jack
84;Cleveland Cavaliers;Kyrie Irving
85;Cleveland Cavaliers;Luol Deng
86;Cleveland Cavaliers;Matthew Dellavedova
87;Cleveland Cavaliers;Sergey Karasev
88;Cleveland Cavaliers;Tristan Thompson
89;Cleveland Cavaliers;Tyler Zeller
90;Dallas Mavericks;Bernard James
91;Dallas Mavericks;Brandan Wright
92;Dallas Mavericks;DeJuan Blair
93;Dallas Mavericks;Devin Harris
94;Dallas Mavericks;Dirk Nowitzki
95;Dallas Mavericks;Gal Mekel
96;Dallas Mavericks;Jae Crowder
97;Dallas Mavericks;Jose Calderon
98;Dallas Mavericks;Monta Ellis
99;Dallas Mavericks;P.J. Hairston
100;Dallas Mavericks;Ricky Ledo
101;Dallas Mavericks;Samuel Dalembert
102;Dallas Mavericks;Shane Larkin
103;Dallas Mavericks;Shawn Marion
104;Dallas Mavericks;Vince Carter
105;Dallas Mavericks;Wayne Ellington
106;Denver Nuggets;Andre Miller
107;Denver Nuggets;Anthony Randolph
108;Denver Nuggets;Danilo Gallinari
109;Denver Nuggets;Darrell Arthur
110;Denver Nuggets;Evan Fournier
111;Denver Nuggets;J.J. Hickson
112;Denver Nuggets;JaVale McGee
113;Denver Nuggets;Jordan Hamilton
114;Denver Nuggets;Kenneth Faried
115;Denver Nuggets;Nate Robinson
116;Denver Nuggets;Quincy Miller
117;Denver Nuggets;Randy Foye
118;Denver Nuggets;Timofey Mozgov
119;Denver Nuggets;Ty Lawson
120;Denver Nuggets;Wilson Chandler
121;Detroit Pistons;Andre Drummond
122;Detroit Pistons;Brandon Jennings
123;Detroit Pistons;Charlie Villanueva
124;Detroit Pistons;Chauncey Billups
125;Detroit Pistons;Greg Monroe
126;Detroit Pistons;Jonas Jerebko
127;Detroit Pistons;Josh Harrellson
128;Detroit Pistons;Josh Smith
129;Detroit Pistons;Kentavious Caldwell-Pope
130;Detroit Pistons;Kyle Singler
131;Detroit Pistons;Luigi Datome
132;Detroit Pistons;Peyton Siva
133;Detroit Pistons;Rodney Stuckey
134;Detroit Pistons;Tony Mitchell
135;Detroit Pistons;Will Bynum
136;Golden State Warriors;Andre Iguodala
137;Golden State Warriors;Andrew Bogut
138;Golden State Warriors;David Lee
139;Golden State Warriors;Draymond Green
140;Golden State Warriors;Festus Ezeli
141;Golden State Warriors;Harrison Barnes
142;Golden State Warriors;Hilton Armstrong
143;Golden State Warriors;Jermaine O'Neal
144;Golden State Warriors;Jordan Crawford
145;Golden State Warriors;Kent Bazemore
146;Golden State Warriors;Klay Thompson
147;Golden State Warriors;Marreese Speights
148;Golden State Warriors;MarShon Brooks
149;Golden State Warriors;Nemanja Nedovic
150;Golden State Warriors;Stephen Curry
151;Houston Rockets;Aaron Brooks
152;Houston Rockets;Chandler Parsons
153;Houston Rockets;Donatas Motiejunas
154;Houston Rockets;Dwight Howard
155;Houston Rockets;Francisco Garcia
156;Houston Rockets;Greg Smith
157;Houston Rockets;Isaiah Canaan
158;Houston Rockets;James Harden
159;Houston Rockets;Jeremy Lin
160;Houston Rockets;Omer Asik
161;Houston Rockets;Omri Casspi
162;Houston Rockets;Patrick Beverley
163;Houston Rockets;Reggie Williams
164;Houston Rockets;Robert Covington
165;Houston Rockets;Ronnie Brewer
166;Houston Rockets;Royal Ivey
167;Houston Rockets;Terrence Jones
168;Indiana Pacers;C.J. Watson
169;Indiana Pacers;Chris Copeland
170;Indiana Pacers;Danny Granger
171;Indiana Pacers;David West
172;Indiana Pacers;Donald Sloan
173;Indiana Pacers;George Hill
174;Indiana Pacers;Ian Mahinmi
175;Indiana Pacers;Lance Stephenson
176;Indiana Pacers;Luis Scola
177;Indiana Pacers;Orlando Johnson
178;Indiana Pacers;Paul George
179;Indiana Pacers;Rasual Butler
180;Indiana Pacers;Roy Hibbert
181;Indiana Pacers;Solomon Hill
182;Los Angeles Clippers;Antawn Jamison
183;Los Angeles Clippers;Blake Griffin
184;Los Angeles Clippers;Byron Mullens
185;Los Angeles Clippers;Chris Paul
186;Los Angeles Clippers;Darius Morris
187;Los Angeles Clippers;Darren Collison
188;Los Angeles Clippers;DeAndre Jordan
189;Los Angeles Clippers;Hedo Turkoglu
190;Los Angeles Clippers;J.J. Redick
191;Los Angeles Clippers;Jamal Crawford
192;Los Angeles Clippers;Jared Dudley
193;Los Angeles Clippers;Matt Barnes
194;Los Angeles Clippers;Reggie Bullock
195;Los Angeles Clippers;Ryan Hollins
196;Los Angeles Clippers;Willie Green
197;Los Angeles Lakers;Chris Kaman
198;Los Angeles Lakers;Jodie Meeks
199;Los Angeles Lakers;Jordan Farmar
200;Los Angeles Lakers;Jordan Hill
201;Los Angeles Lakers;Kendall Marshall
202;Los Angeles Lakers;Kobe Bryant
203;Los Angeles Lakers;Manny Harris
204;Los Angeles Lakers;Nick Young
205;Los Angeles Lakers;Pau Gasol
206;Los Angeles Lakers;Robert Sacre
207;Los Angeles Lakers;Ryan Kelly
208;Los Angeles Lakers;Steve Blake
209;Los Angeles Lakers;Steve Nash
210;Los Angeles Lakers;Wes Johnson
211;Los Angeles Lakers;Xavier Henry
212;Memphis Grizzlies;Courtney Lee
213;Memphis Grizzlies;Ed Davis
214;Memphis Grizzlies;Jamaal Franklin
215;Memphis Grizzlies;James Johnson
216;Memphis Grizzlies;Jon Leuer
217;Memphis Grizzlies;Kosta Koufos
218;Memphis Grizzlies;Marc Gasol
219;Memphis Grizzlies;Mike Conley
220;Memphis Grizzlies;Mike Miller
221;Memphis Grizzlies;Nick Calathes
222;Memphis Grizzlies;Quincy Pondexter
223;Memphis Grizzlies;Seth Curry
224;Memphis Grizzlies;Tayshaun Prince
225;Memphis Grizzlies;Tony Allen
226;Memphis Grizzlies;Zach Randolph
227;Miami Heat;Chris Andersen
228;Miami Heat;Chris Bosh
229;Miami Heat;Dwyane Wade
230;Miami Heat;Greg Oden
231;Miami Heat;James Jones
232;Miami Heat;LeBron James
233;Miami Heat;Mario Chalmers
234;Miami Heat;Michael Beasley
235;Miami Heat;Norris Cole
236;Miami Heat;Rashard Lewis
237;Miami Heat;Ray Allen
238;Miami Heat;Roger Mason Jr.
239;Miami Heat;Shane Battier
240;Miami Heat;Toney Douglas
241;Miami Heat;Udonis Haslem
242;Milwaukee Bucks;Brandon Knight
243;Milwaukee Bucks;Carlos Delfino
244;Milwaukee Bucks;Caron Butler
245;Milwaukee Bucks;Ekpe Udoh
246;Milwaukee Bucks;Ersan Ilyasova
247;Milwaukee Bucks;Gary Neal
248;Milwaukee Bucks;Giannis Antetokounmpo
249;Milwaukee Bucks;John Henson
250;Milwaukee Bucks;Khris Middleton
251;Milwaukee Bucks;Larry Sanders
252;Milwaukee Bucks;Luke Ridnour
253;Milwaukee Bucks;Miroslav Raduljica
254;Milwaukee Bucks;Nate Wolters
255;Milwaukee Bucks;O.J. Mayo
256;Milwaukee Bucks;Zaza Pachulia
257;Minnesota Timberwolves;A.J. Price
258;Minnesota Timberwolves;Alexey Shved
259;Minnesota Timberwolves;Chase Budinger
260;Minnesota Timberwolves;Corey Brewer
261;Minnesota Timberwolves;Dante Cunningham
262;Minnesota Timberwolves;Gorgui Dieng
263;Minnesota Timberwolves;J.J. Barea
264;Minnesota Timberwolves;Kevin Love
265;Minnesota Timberwolves;Kevin Martin
266;Minnesota Timberwolves;Luc Mbah a Moute
267;Minnesota Timberwolves;Nikola Pekovic
268;Minnesota Timberwolves;Ricky Rubio
269;Minnesota Timberwolves;Robbie Hummel
270;Minnesota Timberwolves;Ronny Turiaf
271;Minnesota Timberwolves;Shabazz Muhammad
272;New Orleans Pelicans;Alexis Ajinca
273;New Orleans Pelicans;Al-Farouq Aminu
274;New Orleans Pelicans;Anthony Davis
275;New Orleans Pelicans;Anthony Morrow
276;New Orleans Pelicans;Austin Rivers
277;New Orleans Pelicans;Brian Roberts
278;New Orleans Pelicans;Darius Miller
279;New Orleans Pelicans;Eric Gordon
280;New Orleans Pelicans;Greg Stiemsma
281;New Orleans Pelicans;Jason Smith
282;New Orleans Pelicans;Jeff Withey
283;New Orleans Pelicans;Jrue Holiday
284;New Orleans Pelicans;Lance Thomas
285;New Orleans Pelicans;Louis Amundson
286;New Orleans Pelicans;Ryan Anderson
287;New Orleans Pelicans;Tyreke Evans
288;New York Knicks;Amare Stoudemire
289;New York Knicks;Andrea Bargnani
290;New York Knicks;Beno Udrih
291;New York Knicks;Carmelo Anthony
292;New York Knicks;Chris Smith
293;New York Knicks;Cole Aldrich
294;New York Knicks;Iman Shumpert
295;New York Knicks;J.R. Smith
296;New York Knicks;Jeremy Tyler
297;New York Knicks;Kenyon Martin
298;New York Knicks;Metta World Peace
299;New York Knicks;Pablo Prigioni
300;New York Knicks;Raymond Felton
301;New York Knicks;Tim Hardaway Jr.
302;New York Knicks;Toure Murry
303;New York Knicks;Tyson Chandler
304;Oklahoma City Thunder;Andre Roberson
305;Oklahoma City Thunder;Derek Fisher
306;Oklahoma City Thunder;Hasheem Thabeet
307;Oklahoma City Thunder;Jeremy Lamb
308;Oklahoma City Thunder;Kendrick Perkins
309;Oklahoma City Thunder;Kevin Durant
310;Oklahoma City Thunder;Nick Collison
311;Oklahoma City Thunder;Perry Jones III
312;Oklahoma City Thunder;Reggie Jackson
313;Oklahoma City Thunder;Russell Westbrook
314;Oklahoma City Thunder;Serge Ibaka
315;Oklahoma City Thunder;Steven Adams
316;Oklahoma City Thunder;Thabo Sefolosha
317;Orlando Magic;Andrew Nicholson
318;Orlando Magic;Arron Afflalo
319;Orlando Magic;Doron Lamb
320;Orlando Magic;E'Twaun Moore
321;Orlando Magic;Glen Davis
322;Orlando Magic;Jameer Nelson
323;Orlando Magic;Jason Maxiell
324;Orlando Magic;Kyle O'Quinn
325;Orlando Magic;Moe Harkless
326;Orlando Magic;Nikola Vucevic
327;Orlando Magic;Romero Osby
328;Orlando Magic;Ronnie Price
329;Orlando Magic;Solomon Jones
330;Orlando Magic;Tobias Harris
331;Orlando Magic;Victor Oladipo
332;Philadelphia 76ers;Arnett Moultrie
333;Philadelphia 76ers;Arsalan Kazemi
334;Philadelphia 76ers;Brandon Davies
335;Philadelphia 76ers;Daniel Orton
336;Philadelphia 76ers;Dewayne Dedmon
337;Philadelphia 76ers;Elliot Williams
338;Philadelphia 76ers;Evan Turner
339;Philadelphia 76ers;Hollis Thompson
340;Philadelphia 76ers;James Anderson
341;Philadelphia 76ers;Jason Richardson
342;Philadelphia 76ers;Lavoy Allen
343;Philadelphia 76ers;Lorenzo Brown
344;Philadelphia 76ers;Michael Carter-Williams
345;Philadelphia 76ers;Nerlens Noel
346;Philadelphia 76ers;Spencer Hawes
347;Philadelphia 76ers;Thaddeus Young
348;Philadelphia 76ers;Tony Wroten
349;Phoenix Suns;Alex Len
350;Phoenix Suns;Archie Goodwin
351;Phoenix Suns;Channing Frye
352;Phoenix Suns;Dionte Christmas
353;Phoenix Suns;Emeka Okafor
354;Phoenix Suns;Eric Bledsoe
355;Phoenix Suns;Gerald Green
356;Phoenix Suns;Goran Dragic
357;Phoenix Suns;Ishmael Smith
358;Phoenix Suns;Marcus Morris
359;Phoenix Suns;Markieff Morris
360;Phoenix Suns;Miles Plumlee
361;Phoenix Suns;P.J. Tucker
362;Phoenix Suns;Vyacheslav Kravtsov
363;Portland Trail Blazers;Allen Crabbe
364;Portland Trail Blazers;C.J. McCollum
365;Portland Trail Blazers;Damian Lillard
366;Portland Trail Blazers;Dorell Wright
367;Portland Trail Blazers;Earl Watson
368;Portland Trail Blazers;Joel Freeland
369;Portland Trail Blazers;LaMarcus Aldridge
370;Portland Trail Blazers;Meyers Leonard
371;Portland Trail Blazers;Mo Williams
372;Portland Trail Blazers;Nicolas Batum
373;Portland Trail Blazers;Robin Lopez
374;Portland Trail Blazers;Thomas Robinson
375;Portland Trail Blazers;Victor Claver
376;Portland Trail Blazers;Wesley Matthews
377;Portland Trail Blazers;Will Barton
378;Sacramento Kings;Aaron Gray
379;Sacramento Kings;Ben McLemore
380;Sacramento Kings;Carl Landry
381;Sacramento Kings;DeMarcus Cousins
382;Sacramento Kings;Derrick Williams
383;Sacramento Kings;Isaiah Thomas
384;Sacramento Kings;Jason Thompson
385;Sacramento Kings;Jimmer Fredette
386;Sacramento Kings;Marcus Thornton
387;Sacramento Kings;Quincy Acy
388;Sacramento Kings;Ray McCallum
389;Sacramento Kings;Rudy Gay
390;Sacramento Kings;Travis Outlaw
391;San Antonio Spurs;Aron Baynes
392;San Antonio Spurs;Boris Diaw
393;San Antonio Spurs;Cory Joseph
394;San Antonio Spurs;Danny Green
395;San Antonio Spurs;Jeff Ayres
396;San Antonio Spurs;Kawhi Leonard
397;San Antonio Spurs;Manu Ginobili
398;San Antonio Spurs;Marco Belinelli
399;San Antonio Spurs;Matt Bonner
400;San Antonio Spurs;Nando De Colo
401;San Antonio Spurs;Patrick Mills
402;San Antonio Spurs;Tiago Splitter
403;San Antonio Spurs;Tim Duncan
404;San Antonio Spurs;Tony Parker
405;Toronto Raptors;Amir Johnson
406;Toronto Raptors;Austin Daye
407;Toronto Raptors;Chuck Hayes
408;Toronto Raptors;DeMar DeRozan
409;Toronto Raptors;Dwight Buycks
410;Toronto Raptors;Greivis Vasquez
411;Toronto Raptors;John Salmons
412;Toronto Raptors;Jonas Valanciunas
413;Toronto Raptors;Julyan Stone
414;Toronto Raptors;Kyle Lowry
415;Toronto Raptors;Landry Fields
416;Toronto Raptors;Patrick Patterson
417;Toronto Raptors;Steve Novak
418;Toronto Raptors;Terrence Ross
419;Toronto Raptors;Tyler Hansbrough
420;Utah Jazz;Alec Burks
421;Utah Jazz;Andris Biedrins
422;Utah Jazz;Brandon Rush
423;Utah Jazz;Derrick Favors
424;Utah Jazz;Diante Garrett
425;Utah Jazz;Enes Kanter
426;Utah Jazz;Gordon Hayward
427;Utah Jazz;Ian Clark
428;Utah Jazz;Jeremy Evans
429;Utah Jazz;John Lucas
430;Utah Jazz;Malcolm Thomas
431;Utah Jazz;Marvin Williams
432;Utah Jazz;Richard Jefferson
433;Utah Jazz;Rudy Gobert
434;Utah Jazz;Travis Leslie
435;Utah Jazz;Trey Burke
436;Washington Wizards;Al Harrington
437;Washington Wizards;Bradley Beal
438;Washington Wizards;Chris Singleton
439;Washington Wizards;Eric Maynor
440;Washington Wizards;Garrett Temple
441;Washington Wizards;Glen Rice Jr.
442;Washington Wizards;Jan Vesely
443;Washington Wizards;John Wall
444;Washington Wizards;Kevin Seraphin
445;Washington Wizards;Marcin Gortat
446;Washington Wizards;Martell Webster
447;Washington Wizards;Nene Hilario
448;Washington Wizards;Otto Porter
449;Washington Wizards;Trevor Ariza
450;Washington Wizards;Trevor Booker
